Balance,lease-number
222.15,11000000773
774329.41,11000000612
0,11000000612
-291.51,11000000774
-3330.84,11000000775
600937.97,11000000613
14178.26,11000000614
-3449.83,11000000776
-2280.96,11000000777
-844.74,11000000615
-3824.82,11000000778
-38171.96,11000000616
-163158.03,11000000779
-82736.72,11000000780
-9498.28,11000000781
-588228.50,11000000782
462099.92,11000000650
1115006.57,11000000617
580720.79,11000000618
161163.65,11000000619
-368.56,11000000620
-442587.61,11000000765
-59354.91,11000000621
-19405.76,11000000622
-9428.09,11000000783
-9901.44,11000000623
-120591.25,11000000624
-4487.90,11000000784
-36737.74,11000000625
18679.55,11000000626
100189.59,11000000627
-43688.57,11000000785
-1588.76,11000000786
-15809.74,11000000697
-7209.87,11000000628
-82810.19,11000000629
-37359.82,11000000630
118620.09,11000000631
-557333.35,11000000632
29790.40,11000000940
45200.72,11000000633
15935.48,11000000634
1000.00,11000000634
-18624.42,11000000787
-4553.83,11000000788
-14573.72,11000000636
500.00,11000000637
-81977.87,11000000637
-1869.46,11000000789
273379.98,11000000638
-12800.03,11000000790
143660.54,11000000639
2028480.11,11000000635
-164470.31,11000000640
-737.53,11000000791
41661.02,11000000641
-11246.11,11000000792
450.00,11000000793
-4863.00,11000000794
600.00,11000000795
194859.37,11000000642
-3889.36,11000000796
113152.25,11000000643
-75.00,11000000797
-25130.75,11000000931
-46658.65,11000000644
-0.01,11000000798
-30755.74,11000000647
-1029.76,11000000799
0,11000000800
-5419.53,11000000648
-1353.46,11000000801
-399.99,11000000802
-42812.93,11000000928
-0.01,11000000803
-515925.59,11000000651
5725.00,11000000651
99835.62,11000000652
-1989.18,11000000804
0,11000000805
-82222.69,11000000656
-7841.57,11000000658
198261.52,11000000659
-1226.03,11000000806
-5110.00,11000000807
-535930.85,11000000767
-38610.00,11000000660
-62357.27,11000000661
-17746.64,11000000808
-218804.00,11000000668
131495.48,11000000662
111642.54,11000000663
-461.36,11000000809
22658.78,11000000664
-322.89,11000000810
-14166.46,11000000811
-192056.08,11000000665
-3993.26,11000000812
-1165.33,11000000813
-5212.17,11000000814
-93.64,11000000815
-2593.88,11000000816
32882.50,11000000667
-3537.45,11000000817
39699.48,11000000669
-9415.96,11000000818
22934.15,11000000819
161944.85,11000000923
-5134.08,11000000820
-493.41,11000000821
-963.47,11000000671
-21458.45,11000000822
-45581.78,11000000823
-784.40,11000000824
-2947.88,11000000825
32.67,11000000826
410808.46,11000000672
57609.33,11000000673
6412.00,11000000922
531875.40,11000000922
-92.79,11000000827
52685.79,11000000771
-1500.25,11000000828
38574.91,11000000927
-108046.60,11000000675
-82957.32,11000000747
-52857.54,11000000829
-39746.78,11000000676
-29387.91,11000000944
8675.98,11000000677
-111214.31,11000000678
-1305.37,11000000830
29256.86,11000000929
0.45,11000000831
-534.58,11000000935
360.20,11000000937
190992.67,11000000680
-19506.52,11000000832
-2843.30,11000000833
-26965.71,11000000681
12519.09,11000000682
570.43,11000000938
34595.31,11000000683
-8014.29,11000000834
-1792.29,11000000835
-4391.77,11000000836
51089.82,11000000685
-17.74,11000000837
54261.94,11000000686
-11782.90,11000000838
-54999.57,11000000611
-30616.12,11000000839
0,11000000840
-140975.16,11000000687
-31813.33,11000000841
-48262.72,11000000679
-5744.24,11000000842
193521.16,11000000688
-40463.35,11000000689
-12813.11,11000000690
-861228.27,11000000945
-15752.73,11000000768
-0.50,11000000843
-47.47,11000000844
259061.96,11000000691
0,11000000691
-32528.61,11000000692
228849.29,11000000693
-954.48,11000000649
508535.19,11000000694
0,11000000694
-8373.62,11000000845
-10926.22,11000000846
-45.12,11000000847
-4357.62,11000000848
417713.16,11000000695
-587.53,11000000849
-25944.14,11000000696
-21011.51,11000000850
-16481.51,11000000850
-5912.80,11000000852
-873.59,11000000853
-83613.62,11000000698
-2268.88,11000000854
-300579.91,11000000699
0,11000000855
0,11000000856
-46194.45,11000000856
0,11000000857
-2949.47,11000000858
-3780.52,11000000859
-293.57,11000000860
-11159.15,11000000861
43021.14,11000000700
-5390.06,11000000862
-87248.44,11000000701
-24098.65,11000000702
13211.28,11000000703
41760.96,11000000655
-31996.84,11000000704
-1741.62,11000000863
-1701428.28,11000000710
2496.47,11000000705
1500.93,11000000764
-135821.00,11000000764
14855.90,11000000706
76455.18,11000000733
-101.96,11000000864
-6071.65,11000000865
-343.29,11000000707
-1617.26,11000000866
611287.09,11000000708
-14101.34,11000000867
22339.18,11000000709
31561.21,11000000711
3492.03,11000000868
-3668.31,11000000869
98051.81,11000000712
-39474.09,11000000870
-58643.65,11000000871
416578.01,11000000713
11358.62,11000000714
-98437.92,11000000715
-708.87,11000000872
-8418.81,11000000873
-11261.12,11000000874
-360.00,11000000875
-71760.42,11000000716
15216.82,11000000876
-1817.82,11000000877
-74428.06,11000000878
-15561.39,11000000879
-279251.14,11000000717
96679.03,11000000718
-71257.71,11000000772
11312.88,11000000925
7395.42,11000000936
-87126.91,11000000719
156965.00,11000000921
-74.24,11000000880
38453.69,11000000926
934977.88,11000000720
-110958.87,11000000881
93.99,11000000942
-29004.57,11000000721
-24161.95,11000000722
-43103.21,11000000882
-207.46,11000000883
-11236.93,11000000884
190051.50,11000000920
-9180.57,11000000723
-92903.20,11000000724
-23603.04,11000000725
9006.95,11000000726
1400.00,11000000726
-1665.22,11000000885
-2869.36,11000000886
-409.31,11000000887
-118464.00,11000000919
13561.70,11000000727
-67095.00,11000000728
-146942.12,11000000729
-6624.75,11000000888
-7358.44,11000000889
125613.92,11000000730
-59965.76,11000000731
7632.52,11000000732
-3068.33,11000000890
-2085.76,11000000891
-596.75,11000000892
-6765.80,11000000893
-2873.31,11000000894
-13721.52,11000000895
0,11000000734
251179.33,11000000734
-185467.38,11000000934
-13281.96,11000000896
-1901.20,11000000735
3917.80,11000000736
0,11000000897
-746.20,11000000898
64861.69,11000000737
-574.01,11000000738
-2719.57,11000000738
11096.36,11000000740
-6306.52,11000000741
30661.59,11000000939
133115.94,11000000742
107913.12,11000000743
203105.56,11000000941
-6613.20,11000000899
0,11000000900
-47355.13,11000000744
-28589.40,11000000745
-13769.54,11000000746
-1000.21,11000000901
-5222.94,11000000902
-1542.97,11000000903
1116.49,11000000904
-10127.14,11000000749
302.04,11000000750
-190062.95,11000000751
2065.00,11000000751
-2600.00,11000000905
-8315.27,11000000906
-10577.44,11000000908
-17067.83,11000000907
193306.25,11000000752
1985.00,11000000909
-16358.09,11000000753
-176.12,11000000910
-5179.82,11000000911
249127.65,11000000933
2108187.23,11000000754
57227.95,11000000756
-1405.21,11000000912
-1405.41,11000000913
27004.70,11000000930
-3899.96,11000000914
-890.96,11000000915
17522.61,11000000769
5049.70,11000000766
46704.58,11000000757
169180.91,11000000759
250100.18,11000000760
39903.33,11000000761
7259.39,11000000770
-1013935.47,11000000762
23374.59,11000000763
-9333.83,11000000916
57755.00,11000000924